{
  "Green Snail": {
    "HP": 15,
    "EXPDrop": 3,
    "atk": 10
  },
  "Blue Snail": {
    "HP": 20,
    "EXPDrop": 4,
    "atk": 20
  },
  "Red Snail": {
    "HP": 35,
    "EXPDrop": 6,
    "atk": 40
  },
  "Orange Mushroom": {
    "HP": 65,
    "EXPDrop": 10,
    "atk": 60
  }
}