{

  "weapon0": {
    "damage": 1,
    "speed": "groundSpeed",
    "range": 150
  },
  "weapon1": {
    "damage": 2,
    "speed": 250,
    "range": 200
  },
  "weapon2": {
    "damage": 5,
    "speed": "groundSpeed",
    "range": 200
  },
  "weapon3": {
    "damage": 4,
    "speed": 300,
    "range": 250
  },
  "weapon4": {
    "damage": 10,
    "speed": "groundSpeed",
    "range": 250
  },
  "weapon5": {
    "damage": 7,
    "speed": 300,
    "range": 300
  },
  "weapon6": {
    "damage": 22,
    "speed": "groundSpeed",
    "range": 2200
  }
}